{
    "name": "InputPause",
    "maps": [
        {
            "name": "MenuControls",
            "id": "5440eeff-f7f0-4494-8e36-cb5cc81b0868",
            "actions": [
                {
                    "name": "Pause",
                    "type": "Button",
                    "id": "c2cb7085-0c19-48b9-9134-0ec1de9a7cd5",
                    "expectedControlType": "Button",
                    "processors": "",
                    "interactions": "Press"
                }
            ],
            "bindings": [
                {
                    "name": "",
                    "id": "1424d085-be62-4525-873f-d936978cda37",
                    "path": "<Keyboard>/escape",
                    "interactions": "",
                    "processors": "",
                    "groups": "",
                    "action": "Pause",
                    "isComposite": false,
                    "isPartOfComposite": false
                }
            ]
        }
    ],
    "controlSchemes": []
}